How tall am I? A Bayesian exploration using the Julia language.
…
Loading the data

As mentioned earlier, the data is stored in a CSV file, which I'll read in using the {CSV} module. The read data will be dumped into a DataFrame, as indicated by the second argument to the CSV.read function. I am also using the joinpath function to supply the path to the data file in order to make the code portable across different operating systems.

# load data into DataFrame
d = CSV.read(joinpath("..",
                      "analyses",
                      "data",
                      "height_d.csv"),
             DataFrames.DataFrame)

show(d)

30×3 DataFrame
 Row │ date        time_hours  height_cm
     │ Date…       Int64       Float64
─────┼───────────────────────────────────
   1 │ 2021-06-22          11      196.8
   2 │ 2021-06-22          13      197.5
   3 │ 2021-06-22          20      196.4
   4 │ 2021-06-24          11      197.3
   5 │ 2021-06-24          13      195.6
   6 │ 2021-06-25          11      196.5
   7 │ 2021-06-26          11      196.0
   8 │ 2021-06-27          10      197.1
  ⋮  │     ⋮           ⋮           ⋮
  24 │ 2021-07-06          12      197.3
  25 │ 2021-07-07          10      198.1
  26 │ 2021-07-07          14      196.9
  27 │ 2021-07-07          18      196.3
  28 │ 2021-07-08          11      198.0
  29 │ 2021-07-08          15      197.2
  30 │ 2021-07-09          10      198.0
                          15 rows omitted
…
Now that the data is loaded, I'll make some plots to inspect it. First, I'll try plotting the distribution of height measurements across the days of the week. In order to do that, I will first get the day of the week for each of the recorded dates. I'll do that using the dayname function from the Dates package. I will also store the data as a categorical variable, i.e. as variable of the type CategoricalArray.

# get day of the week for each date in the dataset
d.weekday = CategoricalArrays.CategoricalArray(Dates.dayname.(d.date);
                                               ordered = true)

# set the ordering of the levels of the categorical variable
CategoricalArrays.levels!(d.weekday,
                          ["Monday", "Tuesday", "Wednesday", "Thursday",
                           "Friday", "Saturday", "Sunday"])

show(d)

30×4 DataFrame
 Row │ date        time_hours  height_cm  weekday
     │ Date…       Int64       Float64    Cat…
─────┼──────────────────────────────────────────────
   1 │ 2021-06-22          11      196.8  Tuesday
   2 │ 2021-06-22          13      197.5  Tuesday
   3 │ 2021-06-22          20      196.4  Tuesday
   4 │ 2021-06-24          11      197.3  Thursday
   5 │ 2021-06-24          13      195.6  Thursday
   6 │ 2021-06-25          11      196.5  Friday
   7 │ 2021-06-26          11      196.0  Saturday
   8 │ 2021-06-27          10      197.1  Sunday
  ⋮  │     ⋮           ⋮           ⋮          ⋮
  24 │ 2021-07-06          12      197.3  Tuesday
  25 │ 2021-07-07          10      198.1  Wednesday
  26 │ 2021-07-07          14      196.9  Wednesday
  27 │ 2021-07-07          18      196.3  Wednesday
  28 │ 2021-07-08          11      198.0  Thursday
  29 │ 2021-07-08          15      197.2  Thursday
  30 │ 2021-07-09          10      198.0  Friday
                                     15 rows omitted
…
